{
  "projets":[
    {
      "title": "Arrivée",
      "enterprise": ["tpg", "chiquita"],
      "description": "Arrivée à SQLI ! J'installe mon environnement de travail dans ce milieu étranger. Les gens me parlent mais je ne les comprends pas. Je commence alors l'apprentissage de leur langue via la 'documentation'. Pour m'intégrer je commence des petits projets",
      "skills": ["gulp", "twig", "vue", "js", "drupal"]
    },
    {
      "title": "Sur les traces de Vue",
      "enterprise": ["nespresso"],
      "description": "Après avoir appris les bases de Vue en autonomie, on me donne un projet Nespresso où je dois créer une page en Vue.js en autonomie. Ils me testent ! Je sens que le moindre faux pas pourrait m'être fatal...",
      "skills": ["css", "js", "vue"]
    },
    {
      "title": "Framework party !",
      "enterprise": ["hes_so", "avasad", "richemont"],
      "description": "Connaissez vous le micro-front-end ? Moi non, pourtant je suis embarqué dans un projet où je vais devoir m’y accommoder et faire du react un nouveau framework pour moi... Ah et juste après c’est reparti pour des corrections de bug sur Angular, encore un autre framework. Cette aventure est géniale, il y a tant de choses qui me sont inconnues !!",
      "skills": ["css", "js", "angular", "react"]
    },
    {
      "title": "La conquête de l'Amérique",
      "enterprise": ["nespresso"],
      "description": "C’est bon, je pense qu’ils commencent à me prendre pour l’un des leurs. Mais... Attendez ! On me propose un projet pour les US ? Carrément ! Jamais je n’aurais pensé travailler avec d’autres pays. Cette fois je vais devoir maîtriser un langage bien connu mais dont je n’ai que quelques bases. Je suis même invité pour les calls. Je crois que je commence un peu trop à aimer ce nouvel environnement.",
      "skills": ["js"]
    },
    {
      "title": "Challenge accepted",
      "enterprise": ["visilab"],
      "description": "Cette fois c’est un vrai challenge qui m’est proposé ! Créer une page complète de A à Z pour Visilab en vue.js. C'est mal me connaître... Challenge-moi et mon esprit de compétition s’éveille ! Je suis donc parti pour un projet en autonomie plus motivé que jamais !",
      "skills": ["seo", "ajax", "vue"]
    },
    {
      "title": "Training day",
      "enterprise": ["sqli"],
      "description": "Un moment de creux dans les projets se profile. Suite à toutes ces péripéties, je profite de ce temps pour me consacrer à la prise de connaissances sur des sujets et outils qui m’intéressent. Je me mets donc à apprendre comment configurer mes projets pour mieux maîtriser mes prochaines épreuves et m’intéresse à la 3D. Je me mets aussi à refaire des applications internes à notre boîte.",
      "skills": ["php", "webpack", "vue", "threejs"]
    },
    {
      "title": "Last step !",
      "enterprise": ["pmi"],
      "description": "Sans m’en être rendu compte, je n’ai plus envie de partir... Cette aventure fait partie de moi, mais d’autres devoirs m’appellent. Avant de partir, on me propose une dernière mission: un projet assez complexe où je vais devoir gérer toute la logique. Je prends ça pour l'un des plus beaux cadeaux de départ et savoure ce projet qui me permets durant mes derniers jours d’apprendre énormément.",
      "skills": ["vue", "js", "json"]
    }
  ]
}